fr1_xyz, http://vision.in.tum.de/rgbd/dataset/freiburg1/rgbd_dataset_freiburg1_xyz.tgz
fr2_xyz, http://vision.in.tum.de/rgbd/dataset/freiburg2/rgbd_dataset_freiburg2_xyz.tgz
fr1_floor, http://vision.in.tum.de/rgbd/dataset/freiburg1/rgbd_dataset_freiburg1_floor.tgz
fr1_desk, http://vision.in.tum.de/rgbd/dataset/freiburg1/rgbd_dataset_freiburg1_desk.tgz
fr2_360_kidnap, http://vision.in.tum.de/rgbd/dataset/freiburg2/rgbd_dataset_freiburg2_360_kidnap.tgz
fr2_desk, http://vision.in.tum.de/rgbd/dataset/freiburg2/rgbd_dataset_freiburg2_desk.tgz
fr3_long_office, http://vision.in.tum.de/rgbd/dataset/freiburg3/rgbd_dataset_freiburg3_long_office_household.tgz
fr3_nstr_tex_far, http://vision.in.tum.de/rgbd/dataset/freiburg3/rgbd_dataset_freiburg3_nostructure_texture_far.tgz
fr3_nstr_tex_near, http://vision.in.tum.de/rgbd/dataset/freiburg3/rgbd_dataset_freiburg3_nostructure_texture_near_withloop.tgz
fr3_str_tex_far, http://vision.in.tum.de/rgbd/dataset/freiburg3/rgbd_dataset_freiburg3_structure_texture_far.tgz
fr3_str_tex_near, http://vision.in.tum.de/rgbd/dataset/freiburg3/rgbd_dataset_freiburg3_structure_texture_near.tgz
fr2_desk_person, http://vision.in.tum.de/rgbd/dataset/freiburg2/rgbd_dataset_freiburg2_desk_with_person.tgz
fr3_sit_xyz, http://vision.in.tum.de/rgbd/dataset/freiburg3/rgbd_dataset_freiburg3_sitting_xyz.tgz
fr3_sit_halfsph, http://vision.in.tum.de/rgbd/dataset/freiburg3/rgbd_dataset_freiburg3_sitting_halfsphere.tgz
fr3_sit_rpy, http://filecremers3.informatik.tu-muenchen.de/rgbd/dataset/freiburg3/rgbd_dataset_freiburg3_sitting_rpy.tgz
fr3_walk_xyz, http://vision.in.tum.de/rgbd/dataset/freiburg3/rgbd_dataset_freiburg3_walking_xyz.tgz
fr3_walk_halfsph, http://vision.in.tum.de/rgbd/dataset/freiburg3/rgbd_dataset_freiburg3_walking_halfsphere.tgz
fr3_walk_rpy, http://vision.in.tum.de/rgbd/dataset/freiburg3/rgbd_dataset_freiburg3_walking_rpy.tgz
